GVPT722 - Linear Regression: A Refresher
…
gapminder_df <- wb_data(
  indicator = c("SP.DYN.LE00.IN", "NY.GDP.PCAP.CD"),
  start_date = 2021,
  end_date = 2021
) |> 
  rename(
    life_exp = SP.DYN.LE00.IN,
    gdp_per_cap = NY.GDP.PCAP.CD
  ) |> 
  mutate(log_gdp_per_cap = log(gdp_per_cap)) 

gapminder_df

# A tibble: 217 × 7
   iso2c iso3c country               date gdp_per_cap life_exp log_gdp_per_cap
   <chr> <chr> <chr>                <dbl>       <dbl>    <dbl>           <dbl>
 1 AW    ABW   Aruba                 2021      29128.     74.6           10.3 
 2 AF    AFG   Afghanistan           2021        356.     62.0            5.87
 3 AO    AGO   Angola                2021       1927.     61.6            7.56
 4 AL    ALB   Albania               2021       6377.     76.5            8.76
 5 AD    AND   Andorra               2021      42072.     NA             10.6 
 6 AE    ARE   United Arab Emirates  2021      44332.     78.7           10.7 
 7 AR    ARG   Argentina             2021      10651.     75.4            9.27
 8 AM    ARM   Armenia               2021       4973.     72.0            8.51
 9 AS    ASM   American Samoa        2021      16654.     NA              9.72
10 AG    ATG   Antigua and Barbuda   2021      17179.     78.5            9.75
# ℹ 207 more rows
…
The first thing that is worth noting is that in the previous step we moved away from focusing on modelling our outcome of interest: each country’s average life expectancy. Instead, we wanted to understand the relationship between that outcome and our independent variable (each country’s GDP per capita). Let’s step back for a second and look again at modelling the outcome of interest.

To do this, we can see what our model predicts each country’s average life expectancy to be given its GDP per capita. To work this out, we simply need to plug each country’s GDP per capita into our model:

\[
Life\ expectancy = 33.427 + 4.316 Logged\ GDP\ per\ capita + \epsilon
\]

Happily, broom::augment() does this for us:

m_pred <- augment(m)
m_pred

# A tibble: 201 × 9
   .rownames life_exp log_gdp_per_cap .fitted .resid    .hat .sigma  .cooksd
   <chr>        <dbl>           <dbl>   <dbl>  <dbl>   <dbl>  <dbl>    <dbl>
 1 1             74.6           10.3     77.9 -3.24  0.00956   4.24 0.00285 
 2 2             62.0            5.87    58.7  3.25  0.0255    4.24 0.00793 
 3 3             61.6            7.56    66.1 -4.43  0.00887   4.23 0.00494 
 4 4             76.5            8.76    71.3  5.20  0.00500   4.23 0.00380 
 5 6             78.7           10.7     79.7 -0.978 0.0127    4.24 0.000348
 6 7             75.4            9.27    73.5  1.90  0.00536   4.24 0.000542
 7 8             72.0            8.51    70.2  1.86  0.00526   4.24 0.000511
 8 10            78.5            9.75    75.6  2.93  0.00677   4.24 0.00164 
 9 11            83.3           11.0     81.1  2.25  0.0156    4.24 0.00226 
10 12            81.2           10.9     80.5  0.733 0.0144    4.24 0.000221
# ℹ 191 more rows
# ℹ 1 more variable: .std.resid <dbl>
…
This is a strong and clean relationship: I can clearly see that countries with higher logged GDP per capita tend to have longer average life expectancies. This is incorporated into our model, which formalizes this positive relationship.

There are many different ways we can think about error, but before you apply any more complicated statistical tests you should take a look at your model in the context of your data. This really is the best way to determine whether your model is capturing the underlying relationship between your variables.

Error for each data point

An OLS regression finds the straight line that minimizes the distance between itself and all of the data points. We can look at how far the predicted value produced by our model is from each data point. This distance is called the residual. As above, we can use broom::augment() to find it:

augment(m) |> 
  select(life_exp, .fitted, .resid)

# A tibble: 201 × 3
   life_exp .fitted .resid
      <dbl>   <dbl>  <dbl>
 1     74.6    77.9 -3.24 
 2     62.0    58.7  3.25 
 3     61.6    66.1 -4.43 
 4     76.5    71.3  5.20 
 5     78.7    79.7 -0.978
 6     75.4    73.5  1.90 
 7     72.0    70.2  1.86 
 8     78.5    75.6  2.93 
 9     83.3    81.1  2.25 
10     81.2    80.5  0.733
# ℹ 191 more rows
…
