GVPT722 - OLS Basics
…
This semester we will talk a lot about the assumptions you are required to make when you fit a linear regression model. These include some assumptions about error, including its shape and uniformity.

Fitting our regression model

Let’s make \(X_1\) equal all the whole numbers between one and 100. We can take this vector and our random error and find 100 values of \(Y\):

x_1 <- 1:100
error <- rnorm(100, mean = 0, sd = 50)

df <- tibble(x_1 = x_1,
             y = 10 + 20*x_1 + error)

df

# A tibble: 100 × 2
     x_1     y
   <int> <dbl>
 1     1 -17.0
 2     2  78.2
 3     3  44.3
 4     4 184. 
 5     5  96.6
 6     6 168. 
 7     7 174. 
 8     8 184. 
 9     9 139. 
10    10 205. 
# ℹ 90 more rows
…
Note

The p-value tells us how likely we would be to observe the coefficient estimate that we did if it were actually equal to zero. It is calculated using the coefficient estimate’s t-statistic (statistic), which is a transformation of the coefficient estimate into its place along a standard distribution: the t-distribution.

What if we had more certainty around our estimates? In other words, what if there was less error? Let’s reduce the spread of our random error by reducing its standard deviation from 50 to 5:

error_smaller <- rnorm(100, mean = 0, sd = 5)

df_smaller <- tibble(x_1 = x_1,
                     y = 10 + 20*x_1 + error_smaller)

df_smaller

# A tibble: 100 × 2
     x_1     y
   <int> <dbl>
 1     1  28.1
 2     2  39.1
 3     3  74.7
 4     4  89.9
 5     5 106. 
 6     6 131. 
 7     7 155. 
 8     8 166. 
 9     9 181. 
10    10 213. 
# ℹ 90 more rows
…
