GVPT722 - Statistical Inference
…
error <- rnorm(100, mean = 0, sd = 50)

df <- tibble(
  x = 1:100,
  error = error, 
  y = 10 + 20*x + error
)

df

# A tibble: 100 × 3
       x error     y
   <int> <dbl> <dbl>
 1     1 -15.6  14.4
 2     2 -38.9  11.1
 3     3  36.3 106. 
 4     4  22.9 113. 
 5     5  57.8 168. 
 6     6 -28.4 102. 
 7     7 -46.1 104. 
 8     8 -35.3 135. 
 9     9 -50.3 140. 
10    10  25.0 235. 
# ℹ 90 more rows
…
When this is the case, we have homoscedasticity.

What happens if the variance in the error term changes across \(x_i\)?

df <- tibble(x = 1:100) |> 
  rowwise() |> 
  mutate(error = rnorm(1, sd = x*3),
         y = 10 + 20*x + error)

df

# A tibble: 100 × 3
# Rowwise: 
       x  error     y
   <int>  <dbl> <dbl>
 1     1   3.03  33.0
 2     2 -19.9   30.1
 3     3  -1.46  68.5
 4     4 -14.6   75.4
 5     5   2.35 112. 
 6     6 -16.1  114. 
 7     7  20.2  170. 
 8     8   3.91 174. 
 9     9 -14.4  176. 
10    10 -19.8  190. 
# ℹ 90 more rows
…
