GVPT722 - Panel Data
…
Next, we will collect data on countries’ average life expectancy over this same time period:

life_exp_df <- wb_data("SP.DYN.LE00.IN", start_date = 2000, end_date = 2020, return_wide = F) |> 
  select(iso3c, country, year = date, life_exp = value)

Then we can build our data set:

full_df <- gdp_df |> 
  left_join(life_exp_df, by = join_by(iso3c, country, year)) |> 
  mutate(region = countrycode(country, "country.name", "region"),
         year = year - 2000) |> 
  relocate(region, .after = country)
full_df

# A tibble: 4,557 × 6
   iso3c country     region      year   gdp life_exp
   <chr> <chr>       <chr>      <dbl> <dbl>    <dbl>
 1 AFG   Afghanistan South Asia    20  20.0     62.6
 2 AFG   Afghanistan South Asia    19  18.8     63.6
 3 AFG   Afghanistan South Asia    18  18.1     63.1
 4 AFG   Afghanistan South Asia    17  18.8     63.0
 5 AFG   Afghanistan South Asia    16  18.1     63.1
 6 AFG   Afghanistan South Asia    15  19.1     62.7
 7 AFG   Afghanistan South Asia    14  20.5     62.5
 8 AFG   Afghanistan South Asia    13  20.1     62.4
 9 AFG   Afghanistan South Asia    12  19.9     61.9
10 AFG   Afghanistan South Asia    11  17.8     61.4
# ℹ 4,547 more rows
…
